\begin{tikzpicture}[minimum width=4.8cm,node distance=5cm]
	\begin{class}[text width=4cm]{Service}{3,0}
	\end{class}
	\begin{class}[text width=4cm]{Resource}{-9,-2.5}
	\end{class}

	\begin{class}[text width=4cm]{ReadService}{-3,-2.5}
		\inherit{Service}
	\end{class}
	\begin{class}[text width=4cm]{WriteService}{3,-2.5}
		\inherit{Service}
	\end{class}
	\begin{class}[text width=4cm]{SharedData}{-3,-5}
		\inherit{WriteService}
	\end{class}
	\begin{class}[text width=4cm]{SharedData}{-3,-5}
		\inherit{ReadService}
	\end{class}
	\begin{class}[text width=4cm]{SharedData}{-3,-5}
		\inherit{Resource}
	\end{class}

	\begin{class}[text width=4cm]{RingBuffer}{3,-5}
		\inherit{WriteService}
	\end{class}
	\begin{class}[text width=4cm]{RingBuffer}{3,-5}
		\inherit{ReadService}
	\end{class}
	\begin{class}[text width=4cm]{RingBuffer}{3,-5}
		\inherit{Resource}
	\end{class}
	
	\begin{class}[text width=4cm]{Port}{-6,2.5}
	\end{class}
	\begin{class}[text width=4cm]{ReadPort}{-9,0}
		\inherit{Port}
	\end{class}
	\begin{class}[text width=4cm]{WritePort}{-3,0}
		\inherit{Port}
	\end{class}
	
	\association{ReadPort}{*}{}{ReadService}{}{1}
	\association{ReadPort}{\quad*}{}{Resource}{}{\quad*}

	\association{WritePort}{*}{}{WriteService}{}{*}
	\association{WritePort}{\quad*}{}{Resource}{}{\quad*}
	\end{tikzpicture}